\contentsline {chapter}{\numberline {1}Introduction}{1}{chapter.2}
\contentsline {section}{\numberline {1.1}Example Section}{1}{section.3}
\contentsline {chapter}{\numberline {2}Example Chapter}{2}{chapter.7}
\contentsline {section}{\numberline {2.1}Example Section}{2}{section.8}
\contentsline {chapter}{\numberline {3}Conclusions}{5}{chapter.9}
\contentsline {chapter}{\numberline {A}Example Appendix}{6}{appendix.10}
\contentsline {section}{\numberline {A.1}Example Section}{6}{section.11}
\contentsline {chapter}{Bibliography}{7}{appendix*.12}
